US Election Vote Prediction_MSCI718
…
#by using below summarise function and state as grouping variable, and applying necessary formulae on above dataframe D1, we get our new dataframe D1b with new variables as asked in the question

D1b <- D1 %>% 
  group_by(state) %>%
  summarise(prop_dem = sum(heat2 == 'dem/lean dem')/ n(),
            prop_marr = sum(marital == 'married')/ n(),
            prop_marr_demo = sum(heat2 == 'dem/lean dem' & marital == 'married')/ sum(marital == 'married'),
            prop_other_demo = sum(heat2 == 'dem/lean dem' & marital == 'other')/ sum(marital == 'other'),
            diff = prop_marr_demo-prop_other_demo)

# so, by running this code, we can see our new dataframe 
D1b       

## # A tibble: 48 x 6
##    state       prop_dem prop_marr prop_marr_demo prop_other_demo    diff
##    <fct>          <dbl>     <dbl>          <dbl>           <dbl>   <dbl>
##  1 alabama        0.349     0.604          0.257           0.489 -0.231 
##  2 arizona        0.468     0.629          0.364           0.644 -0.281 
##  3 arkansas       0.370     0.656          0.302           0.5   -0.198 
##  4 california     0.573     0.549          0.473           0.695 -0.222 
##  5 colorado       0.553     0.586          0.502           0.624 -0.122 
##  6 connecticut    0.585     0.613          0.545           0.649 -0.103 
##  7 delaware       0.531     0.605          0.510           0.562 -0.0523
##  8 florida        0.490     0.561          0.401           0.603 -0.202 
##  9 georgia        0.455     0.624          0.366           0.601 -0.234 
## 10 idaho          0.467     0.641          0.407           0.576 -0.169 
## # ... with 38 more rows
…
